{
  "project_info": {
    "project_number": "714655573995",
    "firebase_url": "https://check-firebase-9d40e.firebaseio.com",
    "project_id": "check-firebase-9d40e",
    "storage_bucket": "check-firebase-9d40e.appspot.com"
  },
  "client": [
    {
      "client_info": {
        "mobilesdk_app_id": "1:714655573995:android:a6aab32992484024815bae",
        "android_client_info": {
          "package_name": "com.androidcodegeeks.checkfirebase"
        }
      },
      "oauth_client": [
        {
          "client_id": "714655573995-nlr7e2mgofhbj9s0qq0ejj1p4tt6sqg6.apps.googleusercontent.com",
          "client_type": 1,
          "android_info": {
            "package_name": "com.androidcodegeeks.checkfirebase",
            "certificate_hash": "ea473834280a6f15fcb231d80b53d1f1b376fbc0"
          }
        },
        {
          "client_id": "714655573995-che2kv91mfs58h5a9b0bub1to74gbvo8.apps.googleusercontent.com",
          "client_type": 3
        }
      ],
      "api_key": [
        {
          "current_key": "AIzaSyD30MG4MLEVp7NHGQbY5VKc4izWKxuVbLs"
        }
      ],
      "services": {
        "appinvite_service": {
          "other_platform_oauth_client": [
            {
              "client_id": "714655573995-che2kv91mfs58h5a9b0bub1to74gbvo8.apps.googleusercontent.com",
              "client_type": 3
            }
          ]
        }
      }
    }
  ],
  "configuration_version": "1"
}